…
* Plot the individual trajectories of favourites: NOP16, NOP56, ACT1


## Reshape/tidy the data


~~~
gather(mRNA_data,key=Vol,value="log2_ratio",-Name,-Gene)
~~~
{: .language-r}



~~~
# A tibble: 53,704 x 4
   Name  Gene      Vol   log2_ratio
   <chr> <chr>     <chr>      <dbl>
 1 Q0010 <NA>      40 fL      0.145
 2 Q0017 <NA>      40 fL     -1.32 
 3 Q0032 <NA>      40 fL     NA    
 4 Q0045 COX1      40 fL      0.252
 5 Q0050 AI1       40 fL     -0.784
 6 Q0055 AI2       40 fL     -0.369
 7 Q0060 AI3       40 fL     -0.143
 8 Q0065 AI4       40 fL     -0.377
 9 Q0070 AI5_ALPHA 40 fL     -0.439
10 Q0075 AI5_BETA  40 fL     -0.450
# ... with 53,694 more rows
…
~~~
mRNA_data_gathered
~~~
{: .language-r}



~~~
# A tibble: 53,704 x 4
   Name  Gene      Vol_fL log2_ratio
   <chr> <chr>      <dbl>      <dbl>
 1 Q0010 <NA>          40      0.145
 2 Q0017 <NA>          40     -1.32 
 3 Q0032 <NA>          40     NA    
 4 Q0045 COX1          40      0.252
 5 Q0050 AI1           40     -0.784
 6 Q0055 AI2           40     -0.369
 7 Q0060 AI3           40     -0.143
 8 Q0065 AI4           40     -0.377
 9 Q0070 AI5_ALPHA     40     -0.439
10 Q0075 AI5_BETA      40     -0.450
# ... with 53,694 more rows
…
