Data Manipulation with dplyr
…
{: .output}

# A tibble: 218 x 12
   Gene  `Gene Systemati Qualifier `Gene Ontology  `Gene Ontology  Aspect
   <chr> <chr>            <chr>     <chr>            <lgl>            <chr> 
 1 ECM1  YAL059W          ribosome GO:0042254       NA               biolo
 2 UTP20 YBL004W          ribosome GO:0042254       NA               biolo
 3 MAK5  YBR142W          ribosome GO:0042254       NA               biolo
 4 RPB5  YBR154C          ribosome GO:0042254       NA               biolo
 5 RPS6B YBR181C          ribosome GO:0042254       NA               biolo
 6 RPS9B YBR189W          ribosome GO:0042254       NA               biolo
 7 ENP1  YBR247C          ribosome GO:0042254       NA               biolo
 8 REI1  YBR267W          ribosome GO:0042254       NA               biolo
 9 RRP7  YCL031C          ribosome GO:0042254       NA               biolo
10 SPB1  YCL054W          ribosome GO:0042254       NA               biolo
#  with 208 more rows, and 6 more variables: `Annotation Extension` <chr>,
#   Evidence <chr>, Method <chr>, Source <date>, `Assigned On` <lgl>,
#   Reference <chr>
…
{: .output}

# A tibble: 218 x 12
   Gene  `Gene Systemati Qualifier `Gene Ontology  `Gene Ontology  Aspect
   <chr> <chr>            <chr>     <chr>            <lgl>            <chr> 
 1 ECM1  YAL059W          ribosome GO:0042254       NA               biolo
 2 UTP20 YBL004W          ribosome GO:0042254       NA               biolo
 3 MAK5  YBR142W          ribosome GO:0042254       NA               biolo
 4 RPB5  YBR154C          ribosome GO:0042254       NA               biolo
 5 RPS6B YBR181C          ribosome GO:0042254       NA               biolo
 6 RPS9B YBR189W          ribosome GO:0042254       NA               biolo
 7 ENP1  YBR247C          ribosome GO:0042254       NA               biolo
 8 REI1  YBR267W          ribosome GO:0042254       NA               biolo
 9 RRP7  YCL031C          ribosome GO:0042254       NA               biolo
10 SPB1  YCL054W          ribosome GO:0042254       NA               biolo
#  with 208 more rows, and 6 more variables: `Annotation Extension` <chr>,
#   Evidence <chr>, Method <chr>, Source <date>, `Assigned On` <lgl>,
#   Reference <chr>
…
So which ribi genes are periodically expressed?

Now we know which genes are ribi genes, and we know which genes were periodically expressed, how can we check which ribi genes are periodically expressed?

We can use filter(), combined with a handy operator %in%.

TIP: if you want to find the help page for special symbolic operators like %in%, youll need to wrap them in quotes when searching: e.g.?"%in%" or youll end up with an error saying unexpected SPECIAL.

Applying the filter() function on our ribi_genes object, we can return the rows where the systematic name appears in the periodically_expressed_genes object:

filter(ribi_genes, SystematicName %in% periodically_expressed_genes)

{: .language-r}

# A tibble: 34 x 2
   Gene  SystematicName
   <chr> <chr>         
 1 SPB1  YCL054W       
 2 KRR1  YCL059C       
 3 DBP10 YDL031W       
 4 SAS10 YDL153C       
 5 NOP6  YDL213C       
 6 MAK21 YDR060W       
 7 NOP16 YER002W       
 8 NUG1  YER006W       
 9 NSA2  YER126C       
10 LCP5  YER127W       
#  with 24 more rows
…
Challenge:

How would we find the names of the genes on the list of periodically expressed genes?

How would we then extract only the shorter gene names from the output in Challenge 1.?

Is NOP56 on the list?

Solution

filter(scer_gene_names, SystematicName %in% periodically_expressed_genes)

{: .language-r}

# A tibble: 132 x 2
   Gene   SystematicName
   <chr>  <chr>         
 1 RPL19B YBL027W       
 2 HEK2   YBL032W       
 3 ARC40  YBR234C       
 4 SPB1   YCL054W       
 5 KRR1   YCL059C       
 6 ELO2   YCR034W       
 7 SSK22  YCR073C       
 8 DBP10  YDL031W       
 9 LHP1   YDL051W       
10 RPL13A YDL082W       
#  with 122 more rows

{: .output}

filter(scer_gene_names, SystematicName %in% periodically_expressed_genes) %>% select(Gene)

{: .language-r}

# A tibble: 132 x 1
   Gene  
   <chr> 
 1 RPL19B
 2 HEK2  
 3 ARC40 
 4 SPB1  
 5 KRR1  
 6 ELO2  
 7 SSK22 
 8 DBP10 
 9 LHP1  
10 RPL13A
#  with 122 more rows
…
{: .solution} {: .challenge}

Sorting our datasets with arrange()

Often, we want to view data to emphasize one variable or another. For example, we might want to find the genes with highest abundance in one dataset. To achieve this, we order the rows of our data frame, using the dplyr::arrange() function in ascending and descending order on one or more variables.

Lets try that on our scer_names_estimates table:

# arrange by `gene` 
arrange(scer_names_estimates, gene)

{: .language-r}

# A tibble: 5,887 x 8
   orf     gene    mrna    prot sd.mrna sd.prot n.mrna n.prot
   <chr>   <chr>  <dbl>   <dbl>   <dbl>   <dbl>  <dbl>  <dbl>
 1 YMR056C AAC1   1.17    176.    0.286   0.402     11      1
 2 YBR085W AAC3   2.50    851.    0.235   0.283     11      3
 3 YJR155W AAD10  0.744    69.6   0.289   0.418     10      0
 4 YNL331C AAD14  0.910    83.3   0.325   0.464      8      0
 5 YOL165C AAD15  0.669    57.8   0.324   0.473     10      0
 6 YCR107W AAD3   0.893    84.8   0.289   0.395      7      1
 7 YDL243C AAD4   1.08    103.    0.292   0.42       8      0
 8 YFL056C AAD6   0.673    62.3   0.308   0.385      8      0
 9 YNL141W AAH1  10.4   10787.    0.27    0.199     13      6
10 YHR047C AAP1   5.08   3188.    0.246   0.215      9      8
#  with 5,877 more rows
…
{: .output}

# arrange by `gene` in DESCENDING order and `mrna` in ASCENDING order.
arrange(scer_names_estimates, desc(gene), mrna)

{: .language-r}

# A tibble: 5,887 x 8
   orf     gene    mrna   prot sd.mrna sd.prot n.mrna n.prot
   <chr>   <chr>  <dbl>  <dbl>   <dbl>   <dbl>  <dbl>  <dbl>
 1 YNL241C ZWF1   8.71  12312.   0.266   0.212     12     10
 2 YGR285C ZUO1  36.1   65470.   0.227   0.239     12      9
 3 YBR046C ZTA1   4.53   1790.   0.262   0.269     11      7
 4 YKL175W ZRT3   5.76   1023.   0.26    0.32      11      2
 5 YLR130C ZRT2   4.62   1522.   0.242   0.276     12      3
 6 YGL255W ZRT1   3.62    696.   0.261   0.387     12      1
 7 YER033C ZRG8   0.994   164.   0.281   0.34       9      3
 8 YNR039C ZRG17  3.24    892.   0.267   0.253     12      3
 9 YMR243C ZRC1  14.9    9208.   0.216   0.237     13      4
10 YOL154W ZPS1   0.953   124.   0.283   0.439     10      1
#  with 5,877 more rows
…
You can find more information about the types of join functions in the dplyr package here.

For our purposes, we want to use one of the mutating join functions called left_join(). left_join() includes all rows in x, adding columns from y, based on a variable which is common between both datasets (this is the by = argument).

In our case, we want to keep pretty much all of the mRNA_data table, but join the shorter gene names onto it from scer_gene_names for each row where the systematic names are the same (since systematic names are a column in both tables).

# join short gene names onto mRNA data from dataset 01 on `SystematicName`
mRNA_data_named <- left_join(mRNA_data, scer_gene_names, by = "SystematicName")

# show few values from first variable
print(mRNA_data_named)

{: .language-r}

# A tibble: 6,713 x 10
   SystematicName `40 fL` `45 fL` `50 fL` `55 fL` `60 fL` `65 fL` `70 fL`
   <chr>            <dbl>   <dbl>   <dbl>   <dbl>   <dbl>   <dbl>   <dbl>
 1 Q0010            0.145  -0.421  NA      -1.26  -1.48   -0.111   1.15  
 2 Q0017           -1.32   -0.711   0.317   0.618 -0.498   0.208   0.0750
 3 Q0032           NA      NA      NA      NA     NA       2.57    1.06  
 4 Q0045            0.252  -0.339  -0.595  -0.281 -0.633   0.469   0.631 
 5 Q0050           -0.784  -0.635  -0.622  -0.222 -0.0648  0.760   0.766 
 6 Q0055           -0.369  -0.595  -0.670  -0.108 -0.244   0.599   0.725 
 7 Q0060           -0.143  -0.878  -0.712  -0.341 -0.0729  0.691   0.690 
 8 Q0065           -0.377  -1.02   -1.30   -0.139 -0.325   0.749   0.837 
 9 Q0070           -0.439  -0.305  -0.613  -0.492  0.0846 -0.0548  0.864 
10 Q0075           -0.450  -0.582  -0.516  -0.199  0.0631  0.570   0.710 
#  with 6,703 more rows, and 2 more variables: `75 fL` <dbl>, Gene <chr>
…
